\relax 
\providecommand\hyper@newdestlabel[2]{}
\providecommand\HyperFirstAtBeginDocument{\AtBeginDocument}
\HyperFirstAtBeginDocument{\ifx\hyper@anchor\@undefined
\global\let\oldcontentsline\contentsline
\gdef\contentsline#1#2#3#4{\oldcontentsline{#1}{#2}{#3}}
\global\let\oldnewlabel\newlabel
\gdef\newlabel#1#2{\newlabelxx{#1}#2}
\gdef\newlabelxx#1#2#3#4#5#6{\oldnewlabel{#1}{{#2}{#3}}}
\AtEndDocument{\ifx\hyper@anchor\@undefined
\let\contentsline\oldcontentsline
\let\newlabel\oldnewlabel
\fi}
\fi}
\global\let\hyper@last\relax 
\gdef\HyperFirstAtBeginDocument#1{#1}
\providecommand\HyField@AuxAddToFields[1]{}
\providecommand\HyField@AuxAddToCoFields[2]{}
\citation{geiss2018best}
\citation{deng2018fast}
\citation{lechner2011proteinortho}
\select@language{english}
\@writefile{toc}{\select@language{english}}
\@writefile{lof}{\select@language{english}}
\@writefile{lot}{\select@language{english}}
\@writefile{toc}{\contentsline {section}{\numberline {1}Abstract}{1}{section.1}}
\@writefile{toc}{\contentsline {section}{\numberline {2}Implemented Algorithms}{1}{section.2}}
\@writefile{toc}{\contentsline {subsection}{\numberline {2.1}BUILD}{1}{subsection.2.1}}
\@writefile{toc}{\contentsline {subsection}{\numberline {2.2}BUILD\_ST}{1}{subsection.2.2}}
\@writefile{toc}{\contentsline {subsection}{\numberline {2.3}Random Tree Function}{1}{subsection.2.3}}
\@writefile{toc}{\contentsline {subsection}{\numberline {2.4}ProteinOrtho}{1}{subsection.2.4}}
\@writefile{toc}{\contentsline {section}{\numberline {3}Performance Tests}{2}{section.3}}
\@writefile{toc}{\contentsline {subsection}{\numberline {3.1}Number of Colours}{2}{subsection.3.1}}
\@writefile{lof}{\contentsline {figure}{\numberline {1}{\ignorespaces Average runtime of three repeats, \newline  for 50 vertices at different colour quantities}}{2}{figure.1}}
\newlabel{fig:chapter001_dist_001}{{1}{2}{Average runtime of three repeats, \newline for 50 vertices at different colour quantities}{figure.1}{}}
\@writefile{lof}{\contentsline {figure}{\numberline {2}{\ignorespaces Average runtime of three repeats, \newline  for 200 vertices at different colour quantities}}{2}{figure.2}}
\newlabel{fig:effect_of_col}{{2}{2}{Average runtime of three repeats, \newline for 200 vertices at different colour quantities}{figure.2}{}}
\@writefile{toc}{\contentsline {subsection}{\numberline {3.2}Inconsistent Triples}{2}{subsection.3.2}}
\@writefile{lot}{\contentsline {table}{\numberline {1}{\ignorespaces Average runtime of five repeats for three colours and 50 verges}}{2}{table.1}}
\citation{holm2001poly}
\citation{holm2001poly}
\bibstyle{plain}
\bibdata{aho_bib}
\bibcite{deng2018fast}{1}
\bibcite{geiss2018best}{2}
\bibcite{holm2001poly}{3}
\bibcite{lechner2011proteinortho}{4}
\@writefile{toc}{\contentsline {subsection}{\numberline {3.3}Missing Triples}{3}{subsection.3.3}}
\@writefile{lot}{\contentsline {table}{\numberline {2}{\ignorespaces  Average runtime of five r{BUILD\_ST}epeats for three colours and 50 verges}}{3}{table.2}}
\@writefile{toc}{\contentsline {section}{\numberline {4}Discussion}{3}{section.4}}
