\BOOKMARK [1][-]{section.1}{Abstract}{}% 1
\BOOKMARK [1][-]{section.2}{Implemented\040Algorithms}{}% 2
\BOOKMARK [2][-]{subsection.2.1}{BUILD}{section.2}% 3
\BOOKMARK [2][-]{subsection.2.2}{BUILD_ST}{section.2}% 4
\BOOKMARK [2][-]{subsection.2.3}{Random\040Tree\040Function}{section.2}% 5
\BOOKMARK [2][-]{subsection.2.4}{Proteinortho}{section.2}% 6
\BOOKMARK [1][-]{section.3}{Performance\040Tests}{}% 7
\BOOKMARK [2][-]{subsection.3.1}{Number\040of\040Colours}{section.3}% 8
\BOOKMARK [2][-]{subsection.3.2}{Inconsistent\040Triples}{section.3}% 9
\BOOKMARK [2][-]{subsection.3.3}{Missing\040Triples}{section.3}% 10
\BOOKMARK [1][-]{section.4}{Discussion}{}% 11
